Statistics for Psychologists - 4. One-Factor Within-Participants ANOVA
…
2.2 Familiarizing ourselves with the data:

Ok, now the hypothesis generation is over, let’s take a look at our data.

Please call up the data using the head() function, and ask for the top 50 data points.

head(lab4 data, n = x)

Straight away, we can see there is a bug in our code. Hint, it’s something with the data name and number of data points being called.

Answer

head(lab4_data, n = 50)

# A tibble: 50 × 5
   participant a1_meat a2_meat a3_burgers a3_sausages
         <dbl>   <dbl>   <dbl>      <dbl>       <dbl>
 1           1       6       3          3           3
 2           2       3       4          4           2
 3           3       8       1          1           2
 4           4       6       5          3           2
 5           5       9       0          0           0
 6           6       8       1          2           4
 7           7       9       2          1           1
 8           8       5       4          2           5
 9           9       7       4          1           0
10          10       8       6          2           1
# ℹ 40 more rows
…
Have a look over this dataframe and describe the data to your inner self or a classmate.

The particularly eagle-eyed individuals among us will see that we appear to have a mistake in our data! While we have burger and sausage consumption together as a single total value for time a1 and a2, we failed to create the equivalent composite variable for time a3. Yep, definitely a mistake - a3 burger and a3 sausages have yet to be summed together to get a total.

Well, it’s up to us to sort this out. To do this, let’s make this new variable using the mutate() function. Using this function, we can add up the total number of burgers and sausages consumed at time A3 and create a new ‘a3_meat’ total variable.**

lab4_data %>%
  mutate(a3_meat = (a3_burgers + a3_sausages)) -> lab4_data # Create a new composite variable 'a3_meat' and add this as a column to the pre-existing lab4_data

OK. We should now have a new variable in our dataset called ‘a3_meat’. Let’s check and see if this has all worked.

lab4_data %>% head(n=50)

# A tibble: 50 × 6
   participant a1_meat a2_meat a3_burgers a3_sausages a3_meat
         <dbl>   <dbl>   <dbl>      <dbl>       <dbl>   <dbl>
 1           1       6       3          3           3       6
 2           2       3       4          4           2       6
 3           3       8       1          1           2       3
 4           4       6       5          3           2       5
 5           5       9       0          0           0       0
 6           6       8       1          2           4       6
 7           7       9       2          1           1       2
 8           8       5       4          2           5       7
 9           9       7       4          1           0       1
10          10       8       6          2           1       3
# ℹ 40 more rows

We can see that it has worked, but the surplus a3_burger and a3_sausage columns remain. Just to keep it all tidy, let’s remove these redundant columns with the select() function.

lab4_data %>% select(-c(a3_burgers, a3_sausages)) -> lab4_data # Remove 'a3_burgers' and 'a3_sausages' columns

Now let’s check again using the head() function and see if we’re happy. Please ask again for the first 50 rows.

Answer

lab4_data %>% head(n=50)

# A tibble: 50 × 4
   participant a1_meat a2_meat a3_meat
         <dbl>   <dbl>   <dbl>   <dbl>
 1           1       6       3       6
 2           2       3       4       6
 3           3       8       1       3
 4           4       6       5       5
 5           5       9       0       0
 6           6       8       1       6
 7           7       9       2       2
 8           8       5       4       7
 9           9       7       4       1
10          10       8       6       3
# ℹ 40 more rows
…
To convert the data from seperate columns for each level to one long column, please execute the following code:

lab4_data_long <- lab4_data %>%
  gather(key = "time", value = "meat", a1_meat, a2_meat, a3_meat)

You will note, using the <- defining function, we have created a brand new data frame named lab4_data_long

Let’s view this new lab4_data_long dataframe and make sure it looks as we would expect. Here, we can again use the head() function - remember, however, that our number of rows have now increased 150 (all data in one column). Alternatively, you could also use the view() function.

Answer

lab4_data_long %>% head(n=150)

# A tibble: 150 × 3
   participant time     meat
         <dbl> <chr>   <dbl>
 1           1 a1_meat     6
 2           2 a1_meat     3
 3           3 a1_meat     8
 4           4 a1_meat     6
 5           5 a1_meat     9
 6           6 a1_meat     8
 7           7 a1_meat     9
 8           8 a1_meat     5
 9           9 a1_meat     7
10          10 a1_meat     8
# ℹ 140 more rows
…
To practice with making an composite variable using an average score of multiple values, please return up to the text marked “Special note” which is just above “2.3 Reformating the data” and try your hand at making a new average score variable from some existing variable. note, your data will need to be in the original wide format (i.e., the lab4_data), as opposed to long format (i.e., lab4_data_wide).

Answer

lab4_data = lab4_data %>%
  mutate(meat_average = (rowmeans(a1_meat, a2_meat, a3_meat)))
 # Create a new composite variable 'meat_average', which is the average amount of meat a participant consumed per week across the three time points - i.e., ((amount of meat consumed at time 1 + amount of meat consumed at time 2 + amount of meat consumed at time 3) divided by 3). Add this new composite as a variable to the pre-existing lab4_data
# CHECK IT IS CORRECT AND NEW VARIABLE EXISTS
print(lab4_data)

# A tibble: 50 × 5
   participant a1_meat a2_meat a3_meat meat_average
         <dbl>   <dbl>   <dbl>   <dbl>        <dbl>
 1           1       6       3       6         5   
 2           2       3       4       6         4.33
 3           3       8       1       3         4   
 4           4       6       5       5         5.33
 5           5       9       0       0         3   
 6           6       8       1       6         5   
 7           7       9       2       2         4.33
 8           8       5       4       7         5.33
 9           9       7       4       1         4   
10          10       8       6       3         5.67
# ℹ 40 more rows
…
