Statistics for Psychologists - 8. Two-Factor Mixed and Within-Participants ANOVA
…
The data set contains four columns:

Participant: represents the participant number, which ranges from 1–80, with \(N\) = 40 participants in each of the four conditions resulting from the combination of our two factors.

Group: represents whether the participant belongs to the healthy control group (Healthy) or the schizophrenia group (Schizophrenia).

Congruent: represents the mean response time, averaged across trials, for congruent trials in which the colour word and the ink it is presented in are the same.

Incongruent: represents the mean response time, averaged across trials, for incongruent trials in which the colour word and the ink it is presented in are different.

Import data, set variables as factors, generate descriptive statistics, and perform assumption checks

The first thing you need to do is load the data into RStudio. Make sure that you name your data frame as stroopMixed.

# A tibble: 80 × 4
   Participant Group   Congruent Incongruent
         <dbl> <chr>       <dbl>       <dbl>
 1           1 Healthy       586         906
 2           2 Healthy       608         773
 3           3 Healthy       609         887
 4           4 Healthy       621         775
 5           5 Healthy       642         699
 6           6 Healthy       593         707
 7           7 Healthy       616         850
 8           8 Healthy       721         763
 9           9 Healthy       631         760
10          10 Healthy       639         740
# ℹ 70 more rows
…
Incongruent_Block1: represents the mean response time, averaged across trials, for incongruent trials in the first block of trials.

Incongruent_Block2: represents the mean response time, averaged across trials, for incongruent trials in the second block of trials.

Incongruent_Block3: represents the mean response time, averaged across trials, for incongruent trials in the third block of trials.

Import data, set variables as factors, and generate descriptive statistics

There’s a bit to get through in this analysis, so I am going to supply the code for everything that follows. We begin, as always, by loading our data set:

# Import data
stroopWithin = read_csv("StroopWithin.csv")
(stroopWithin)

# A tibble: 40 × 7
   Participant Congruent_Block1 Congruent_Block2 Congruent_Block3
         <dbl>            <dbl>            <dbl>            <dbl>
 1           1              627              687              563
 2           2              558              681              674
 3           3              635              709              575
 4           4              626              673              663
 5           5              610              610              643
 6           6              568              655              715
 7           7              635              641              573
 8           8              530              677              545
 9           9              613              621              638
10          10              542              607              636
# ℹ 30 more rows
# ℹ 3 more variables: Incongruent_Block1 <dbl>, Incongruent_Block2 <dbl>,
#   Incongruent_Block3 <dbl>

As is the case for a fully within-participants design, the data are in entirely wide format and we need to get them into long format for the analysis. We are going to start by grouping the columns Congruent_Block1 through to Incongruent_Block3 into a new variable called Group using the gather function used previously:

# Convert data into long format
stroopWithinLong = stroopWithin %>%
  gather(Group,RT,Congruent_Block1:Incongruent_Block3,factor_key = TRUE)
(stroopWithinLong)

# A tibble: 240 × 3
   Participant Group               RT
         <dbl> <fct>            <dbl>
 1           1 Congruent_Block1   627
 2           2 Congruent_Block1   558
 3           3 Congruent_Block1   635
 4           4 Congruent_Block1   626
 5           5 Congruent_Block1   610
 6           6 Congruent_Block1   568
 7           7 Congruent_Block1   635
 8           8 Congruent_Block1   530
 9           9 Congruent_Block1   613
10          10 Congruent_Block1   542
# ℹ 230 more rows

The first argument to gather() tells R we want to create a variable called Group. The second argument tells R that RT is the dependent variable. The third argument, Congruent_Block1:Incongruent_Block3, tells R that we want to bundle the columns Congruent_Block1 through to Incongruent_Block3 into the new variable, Group. The fourth argument, factor_key = TRUE, tells R that we want to make this variable a factor. The results of this transformation have been assigned to a new data frame called stroopWithinLong.

Looking at the new data frame we have created, we can see that it is not exactly what we want. Our new variable Group actually contains both of our independent variables. What we want is to separate these independent variables into two separate columns. We can do that with the separate function:

# Divide Group into seperate columns for Trial Type and Block
stroopWithinLongSep = stroopWithinLong %>%
  separate(Group, c("TrialType","Block"))
(stroopWithinLongSep)

# A tibble: 240 × 4
   Participant TrialType Block     RT
         <dbl> <chr>     <chr>  <dbl>
 1           1 Congruent Block1   627
 2           2 Congruent Block1   558
 3           3 Congruent Block1   635
 4           4 Congruent Block1   626
 5           5 Congruent Block1   610
 6           6 Congruent Block1   568
 7           7 Congruent Block1   635
 8           8 Congruent Block1   530
 9           9 Congruent Block1   613
10          10 Congruent Block1   542
# ℹ 230 more rows
…
Four our purposes, we are going to perform planned comparisons. To perform these comparisons, we first need to filter our data so that they only contain responses on incongruent trials (we are excluding responses on congruent trials). The following code gives us what we want:

# Filter the data so they only contain responses on "Incongruent" trials
filter4SME = filter(stroopWithinLongSep, TrialType == "Incongruent")
(filter4SME)

# A tibble: 120 × 4
   Participant TrialType   Block     RT
   <fct>       <fct>       <fct>  <dbl>
 1 1           Incongruent Block1   863
 2 2           Incongruent Block1   870
 3 3           Incongruent Block1   794
 4 4           Incongruent Block1   872
 5 5           Incongruent Block1   813
 6 6           Incongruent Block1   856
 7 7           Incongruent Block1   901
 8 8           Incongruent Block1   818
 9 9           Incongruent Block1   799
10 10          Incongruent Block1   829
# ℹ 110 more rows
…
